src/wave.vcd
$date
	Thu Jul  1 13:57:34 2021
$end
$version
	Icarus Verilog
$end
$timescale
	1ps
$end
$scope module main $end
$var wire 8 ! nPC [7:0] $end
$var wire 16 " instr [15:0] $end
$var wire 8 # bias_ex [7:0] $end
$var wire 4 $ bias [3:0] $end
$var wire 8 % WD [7:0] $end
$var wire 1 & REG_WE $end
$var wire 2 ' REG_MUX [1:0] $end
$var wire 1 ( RAM_WE $end
$var wire 8 ) RAM_D [7:0] $end
$var wire 8 * R [7:0] $end
$var wire 8 + PCout [7:0] $end
$var wire 2 , PC_MUX_ [1:0] $end
$var wire 3 - PC_MUX [2:0] $end
$var wire 8 . PC_1 [7:0] $end
$var wire 8 / D2 [7:0] $end
$var wire 8 0 D1 [7:0] $end
$var wire 1 1 Bias_MUX $end
$var wire 1 2 A_MUX $end
$var wire 3 3 ALU_OP [2:0] $end
$var reg 1 4 CLK $end
$scope begin genblk1[0] $end
$var wire 8 5 register [7:0] $end
$upscope $end
$scope begin genblk1[1] $end
$var wire 8 6 register [7:0] $end
$upscope $end
$scope begin genblk1[2] $end
$var wire 8 7 register [7:0] $end
$upscope $end
$scope begin genblk1[3] $end
$var wire 8 8 register [7:0] $end
$upscope $end
$scope begin genblk1[4] $end
$var wire 8 9 register [7:0] $end
$upscope $end
$scope begin genblk1[5] $end
$var wire 8 : register [7:0] $end
$upscope $end
$scope begin genblk1[6] $end
$var wire 8 ; register [7:0] $end
$upscope $end
$scope begin genblk1[7] $end
$var wire 8 < register [7:0] $end
$upscope $end
$scope begin genblk1[8] $end
$var wire 8 = register [7:0] $end
$upscope $end
$scope begin genblk1[9] $end
$var wire 8 > register [7:0] $end
$upscope $end
$scope begin genblk1[10] $end
$var wire 8 ? register [7:0] $end
$upscope $end
$scope begin genblk1[11] $end
$var wire 8 @ register [7:0] $end
$upscope $end
$scope begin genblk1[12] $end
$var wire 8 A register [7:0] $end
$upscope $end
$scope begin genblk1[13] $end
$var wire 8 B register [7:0] $end
$upscope $end
$scope begin genblk1[14] $end
$var wire 8 C register [7:0] $end
$upscope $end
$scope begin genblk1[15] $end
$var wire 8 D register [7:0] $end
$upscope $end
$scope module add $end
$var wire 8 E B [7:0] $end
$var wire 1 F C0 $end
$var wire 8 G R [7:0] $end
$var wire 1 H C $end
$var wire 8 I A [7:0] $end
$upscope $end
$scope module alu $end
$var wire 8 J A [7:0] $end
$var wire 8 K and_ [7:0] $end
$var wire 1 L if_cal $end
$var wire 8 M nor_ [7:0] $end
$var wire 8 N notB [7:0] $end
$var wire 8 O s [7:0] $end
$var wire 8 P rr [7:0] $end
$var wire 3 Q op [2:0] $end
$var wire 1 R lt $end
$var wire 8 S lr [7:0] $end
$var wire 1 T gt $end
$var wire 1 U eq $end
$var wire 4 V comp_temp [3:0] $end
$var wire 1 W comp_r $end
$var wire 8 X cal_r [7:0] $end
$var wire 8 Y add_sub [7:0] $end
$var wire 8 Z R [7:0] $end
$var wire 8 [ B_or_notB [7:0] $end
$var wire 8 \ B [7:0] $end
$scope module a $end
$var wire 8 ] A [7:0] $end
$var wire 8 ^ B [7:0] $end
$var wire 1 _ C0 $end
$var wire 8 ` R [7:0] $end
$var wire 1 a C $end
$upscope $end
$scope module l $end
$var wire 8 b A [7:0] $end
$var wire 3 c B [2:0] $end
$var wire 8 d r [7:0] $end
$var wire 8 e l4 [7:0] $end
$var wire 8 f l2 [7:0] $end
$var wire 8 g l1 [7:0] $end
$upscope $end
$scope module r $end
$var wire 8 h A [7:0] $end
$var wire 3 i B [2:0] $end
$var wire 8 j r [7:0] $end
$var wire 8 k r4 [7:0] $end
$var wire 8 l r2 [7:0] $end
$var wire 8 m r1 [7:0] $end
$var wire 8 n pre [7:0] $end
$upscope $end
$upscope $end
$scope module dec $end
$var wire 3 o ALU_OP [2:0] $end
$var wire 2 p REG_MUX [1:0] $end
$var wire 1 & REG_WE $end
$var wire 4 q op [3:0] $end
$var wire 1 ( RAM_WE $end
$var wire 3 r PC_MUX [2:0] $end
$var wire 1 1 Bias_MUX $end
$var wire 1 2 A_MUX $end
$upscope $end
$scope module pc $end
$var wire 1 4 CLK $end
$var wire 8 s nPC [7:0] $end
$var reg 8 t out [7:0] $end
$upscope $end
$scope module ram $end
$var wire 1 4 CLK $end
$var wire 8 u D [7:0] $end
$var wire 8 v RA_WA [7:0] $end
$var wire 1 ( WE $end
$var wire 8 w WD [7:0] $end
$upscope $end
$scope module rf $end
$var wire 1 4 CLK $end
$var wire 8 x D1 [7:0] $end
$var wire 8 y D2 [7:0] $end
$var wire 4 z RA1 [3:0] $end
$var wire 4 { RA2 [3:0] $end
$var wire 4 | WA [3:0] $end
$var wire 8 } WD [7:0] $end
$var wire 1 & WE $end
$upscope $end
$scope module rom $end
$var wire 8 ~ A [7:0] $end
$var wire 16 !" D [15:0] $end
$upscope $end
$upscope $end
$enddefinitions $end
#0
$dumpvars
bx !"
b0 ~
bx }
bx |
bx {
bx z
bx y
bx x
bx w
bx v
bx u
b0 t
bx s
bx r
bx q
bx p
bx o
b0xxxxxxx n
bx m
bx l
bx k
bx j
bx i
bx h
bx g
bx f
bx e
bx d
bx c
bx b
xa
bx `
x_
bx ^
bx ]
bx \
bx [
bx Z
bx Y
bx X
xW
bx0 V
xU
xT
bx S
xR
bx Q
bx P
bx O
bx N
bx M
xL
bx K
bx J
b0 I
0H
b1 G
1F
b0 E
bx D
bx C
bx B
bx A
bx @
bx ?
bx >
bx =
bx <
bx ;
bx :
bx 9
bx 8
bx 7
bx 6
b0 5
14
bx 3
x2
x1
bx 0
bx /
b1 .
bx -
bx ,
b0 +
bx *
bx )
x(
bx '
x&
bx %
bx $
bx #
bx "
bx !
$end
#10
bx1111 l
b1xxxxxxx S
b1xxxxxxx d
b1xxxxxxx e
b1 !
b1 s
b11111xxx f
b11111111 %
b11111111 }
bx111111 m
1L
b0 ,
b0 M
b1111111x g
1&
b1111111 n
b1 '
b1 p
b11111111 J
b11111111 ]
b11111111 b
b11111111 h
0_
b1 -
b1 r
b11111111 #
b1111 $
12
b1 3
b1 Q
b1 o
b1111 {
b1111 z
b1101 |
01
0(
b1001 q
b1001110111111111 "
b1001110111111111 !"
#100
04
#110
b10 !
b10 s
b10 .
b10 G
b1 +
b1 I
b1 t
b1 ~
b11111111 B
#120
b0 O
b0 P
b0 j
b0 k
b0 *
b0 Z
b0 v
b0 X
b0 S
b0 d
b0 e
b0 l
bx M
b0 f
b0 m
b0 K
b0 g
b0 n
b1010 %
b1010 }
b0 J
b0 ]
b0 b
b0 h
b0 #
b0 $
b1010 {
b0 0
b0 w
b0 x
b0 z
b10 |
b1001001000001010 "
b1001001000001010 !"
#200
14
#300
04
#310
b11 !
b11 s
b11 .
b11 G
b10 +
b10 I
b10 t
b10 ~
b1010 7
#320
bx *
bx Z
bx v
bx X
b100 !
b100 s
b1 ,
b11 %
b11 }
b10 '
b10 p
b10 3
b10 Q
b10 o
b10 -
b10 r
b100 {
b1111 |
b1010 q
b1010111100000100 "
b1010111100000100 !"
#400
14
#500
04
#510
b101 %
b101 }
b101 .
b101 G
b100 +
b100 I
b100 t
b100 ~
b11 D
#520
b0 *
b0 Z
b0 v
b0 X
b0 ,
b11 %
b11 }
b101 !
b101 s
b1 '
b1 p
b1 3
b1 Q
b1 o
b1 -
b1 r
b11 {
b100 |
b1001 q
b1001010000000011 "
b1001010000000011 !"
#600
14
#700
04
#710
b110 !
b110 s
b110 .
b110 G
b101 +
b101 I
b101 t
b101 ~
b11 9
#720
b1010000 O
b1010000 S
b1010000 d
b1010000 e
b1010000 f
0L
b11110100 X
b101 l
b10100 g
b101 m
b10 K
b101 n
1_
b0 %
b0 }
b111 Y
b111 `
1a
b11110100 M
b100 i
b11 '
b11 p
b1010 J
b1010 ]
b1010 b
b1010 h
b110 3
b110 Q
b110 o
b10 #
b10 $
b11 c
b11111100 [
b11111100 ^
b11111100 N
b0 -
b0 r
02
0U
0R
0W
b10 V
1T
b11 /
b11 \
b11 y
b100 {
b1010 0
b1010 w
b1010 x
b10 z
b101 |
b110 q
b110010100100100 "
b110010100100100 !"
#800
14
#900
04
#910
b111 !
b111 s
b111 .
b111 G
b110 +
b110 I
b110 t
b110 ~
b0 :
#920
b11111001 *
b11111001 Z
b11111001 v
1L
b11111110 P
b11111110 j
b11111110 k
b11111001 O
b1001 !
b1001 s
b11111001 S
b11111001 d
b11111001 e
b10 ,
b11101111 l
bx %
bx }
b11111001 X
b11111001 f
b11111001 g
b10111110 m
b100 -
b100 r
0&
b0 '
b0 p
b110 M
b11111111 [
b11111111 ^
b111 i
b11111001 Y
b11111001 `
1a
b1111100 n
b100 3
b100 Q
b100 o
b11111001 #
b1001 $
b0 c
b0 K
b11111111 N
b11111001 J
b11111001 ]
b11111001 b
b11111001 h
12
b0 /
b0 \
b0 y
b101 {
bx 0
bx w
bx x
b1001 z
b0 |
b1100 q
b1100000010010101 "
b1100000010010101 !"
#1000
14
#1100
04
#1110
b1010 .
b1010 G
b1001 +
b1001 I
b1001 t
b1001 ~
#1120
b11110111 P
b11110111 j
b11110111 k
b11111000 O
b11111100 *
b11111100 Z
b11111100 v
b11111000 S
b11111000 d
b11111000 e
b1111111 m
b1111111 l
b0 ,
b11111100 %
b11111100 }
b11111100 X
b1010 !
b1010 s
b11111000 f
b0 -
b0 r
1&
b11 '
b11 p
b11111100 Y
b11111100 `
b11111110 g
b1111111 n
b0 M
b11111100 [
b11111100 ^
b100 i
b11111111 J
b11111111 ]
b11111111 b
b11111111 h
b11111101 #
b1101 $
b11 c
b11 K
b11111100 N
02
b11 /
b11 \
b11 y
b100 {
b11111111 0
b11111111 w
b11111111 x
b1101 z
b1101 |
b100 q
b100110111010100 "
b100110111010100 !"
#1200
14
#1300
04
#1310
b1011 !
b1011 s
b1011 .
b1011 G
b1010 +
b1010 I
b1010 t
b1010 ~
b11100000 O
b11100000 S
b11100000 d
b11100000 e
b11111001 %
b11111001 }
b11100000 f
b11111001 *
b11111001 Z
b11111001 v
b1111110 l
b11111001 X
b11111000 g
b1111110 m
b0 K
b11111001 Y
b11111001 `
b1111110 n
b11111100 J
b11111100 ]
b11111100 b
b11111100 h
b11111100 0
b11111100 w
b11111100 x
b11111100 B
#1320
b11111111 %
b11111111 }
b0 P
b0 j
b0 k
b11111111 *
b11111111 Z
b11111111 v
b0 l
0a
b11 f
b110000 S
b110000 d
b110000 e
b11111111 X
b11 g
b0 m
0&
b0 O
b11 i
b11111111 Y
b11111111 `
b1 n
0_
b100 c
b0 K
b11 N
1R
b11 J
b11 ]
b11 b
b11 h
b1 -
b1 r
b11 #
b11 $
12
b0 3
b0 Q
b0 o
0U
b100 V
0T
b11111100 /
b11111100 \
b11111100 y
b1101 {
b11 0
b11 w
b11 x
b1111 z
b11 |
11
1(
b1111 q
b1111001111111101 "
b1111001111111101 !"
#1400
14
#1500
04
#1510
b1100 !
b1100 s
b1100 .
b1100 G
b11 )
b11 u
b1011 +
b1011 I
b1011 t
b1011 ~
#1520
b11111110 %
b11111110 }
b100000 S
b100000 d
b100000 e
bx )
bx u
b11111110 *
b11111110 Z
b11111110 v
b1 M
b11111110 X
b10 f
b11111110 Y
b11111110 `
b10 g
b10 J
b10 ]
b10 b
b10 h
b10 #
b10 $
bx 0
bx w
bx x
b1000 z
b10 |
b1111001010001101 "
b1111001010001101 !"
#1600
14
#1700
04
#1710
b1101 !
b1101 s
b1101 .
b1101 G
b1100 +
b1100 I
b1100 t
b1100 ~
#1720
b11111101 %
b11111101 }
b10000 S
b10000 d
b10000 e
b11111101 *
b11111101 Z
b11111101 v
b10 M
b11111101 X
b1 f
b11111101 Y
b11111101 `
b1 g
b0 n
b1 J
b1 ]
b1 b
b1 h
b1 #
b1 $
b1001 z
b1 |
b1111000110011101 "
b1111000110011101 !"
#1800
14
#1900
04
#1910
b1110 !
b1110 s
b1110 .
b1110 G
b1101 +
b1101 I
b1101 t
b1101 ~
#1920
b10 m
b1010 *
b1010 Z
b1010 v
b1010 f
b1010 S
b1010 d
b1010 e
b1010 X
1&
b1010 %
b1010 }
b1010 g
b101 n
b1010 O
b1010 Y
b1010 `
b11110101 M
b111 i
b11 '
b11 p
b1010 J
b1010 ]
b1010 b
b1010 h
b0 c
b0 [
b0 ^
b11111111 N
b0 -
b0 r
b10 #
b10 $
02
0R
b10 V
1T
b0 /
b0 \
b0 y
b0 {
b1010 0
b1010 w
b1010 x
b10 z
b1000 |
01
0(
b0 q
b100000100000 "
b100000100000 !"
#2000
14
#2100
04
#2110
b1111 !
b1111 s
b1111 .
b1111 G
b1110 +
b1110 I
b1110 t
b1110 ~
b1010 =
#2120
b0 *
b0 Z
b0 v
b0 X
b0 m
b1 %
b1 }
b0 S
b0 d
b0 e
b0 f
b1 '
b1 p
xW
b0 O
xa
bx M
bx i
bx Y
bx `
b0 g
b0 n
b1 3
b1 Q
b1 o
b0 #
b0 $
bx c
bx [
bx ^
b0 K
bx N
b0 J
b0 ]
b0 b
b0 h
b1 -
b1 r
12
xU
xR
bx0 V
xT
bx /
bx \
bx y
b1 {
b0 0
b0 w
b0 x
b0 z
b110 |
b1001 q
b1001011000000001 "
b1001011000000001 !"
#2200
14
#2300
04
#2310
b10000 !
b10000 s
b10000 .
b10000 G
b1111 +
b1111 I
b1111 t
b1111 ~
b1 ;
#2320
b10100 O
b10100 S
b10100 d
b10100 e
b1 l
b10100 f
b1001 *
b1001 Z
b1001 v
b10100 g
b101 m
b1001 X
b101 n
1_
b1001 %
b1001 }
b1001 Y
b1001 `
1a
b11110100 M
b110 i
b11 '
b11 p
b1010 J
b1010 ]
b1010 b
b1010 h
b100 3
b100 Q
b100 o
b11111000 #
b1000 $
b1 c
b11111110 [
b11111110 ^
b11111110 N
b0 -
b0 r
02
0U
0R
0W
b10 V
1T
b1 /
b1 \
b1 y
b110 {
b1010 0
b1010 w
b1010 x
b1000 z
b10 |
b100 q
b100001010000110 "
b100001010000110 !"
#2400
14
#2500
04
#2510
b10001 !
b10001 s
b10001 .
b10001 G
b10000 +
b10000 I
b10000 t
b10000 ~
b1001 7
#2520
b0 O
b100 !
b100 s
0a
b0 S
b0 d
b0 e
b11111100 *
b11111100 Z
b11111100 v
b1 ,
b10001 %
b10001 }
0T
1W
b100 V
1R
b0 f
b11111100 X
b0 g
b0 m
b0 l
b0 P
b0 j
b0 k
b10 -
b10 r
b10 '
b10 p
0_
b11111100 M
b11 [
b11 ^
b100 i
b11 Y
b11 `
b0 n
b10 3
b10 Q
b10 o
b0 #
b0 $
b11 c
b11111100 N
b0 J
b0 ]
b0 b
b0 h
12
b11 /
b11 \
b11 y
b100 {
b0 0
b0 w
b0 x
b0 z
b1111 |
b1010 q
b1010111100000100 "
b1010111100000100 !"
#2600
14
#2700
04
#2710
b101 %
b101 }
b101 .
b101 G
b100 +
b100 I
b100 t
b100 ~
b10001 D
#2720
b0 *
b0 Z
b0 v
b0 X
b0 ,
b11 %
b11 }
b101 !
b101 s
bx Y
bx `
xa
bx M
bx i
b1 '
b1 p
b1 3
b1 Q
b1 o
bx c
bx [
bx ^
bx N
b1 -
b1 r
xU
xW
xR
bx0 V
xT
bx /
bx \
bx y
b11 {
b100 |
b1001 q
b1001010000000011 "
b1001010000000011 !"
#2800
14
#2900
04
#2910
b110 !
b110 s
b110 .
b110 G
b101 +
b101 I
b101 t
b101 ~
#2920
b1001000 O
b1001000 S
b1001000 d
b1001000 e
b1001000 f
0L
b11110100 X
b100 l
b10010 g
b100 m
b1 K
b100 n
1_
b0 %
b0 }
b110 Y
b110 `
1a
b11110100 M
b100 i
b11 '
b11 p
b1001 J
b1001 ]
b1001 b
b1001 h
b110 3
b110 Q
b110 o
b10 #
b10 $
b11 c
b11111100 [
b11111100 ^
b11111100 N
b0 -
b0 r
02
0U
0R
0W
b10 V
1T
b11 /
b11 \
b11 y
b100 {
b1001 0
b1001 w
b1001 x
b10 z
b101 |
b110 q
b110010100100100 "
b110010100100100 !"
#3000
14
#3100
04
#3110
b111 !
b111 s
b111 .
b111 G
b110 +
b110 I
b110 t
b110 ~
#3120
b11111001 *
b11111001 Z
b11111001 v
1L
b11111110 P
b11111110 j
b11111110 k
b11111001 O
b1001 !
b1001 s
b11111001 S
b11111001 d
b11111001 e
b10 ,
b11101111 l
bx %
bx }
b11111001 X
b11111001 f
b11111001 g
b10111110 m
b100 -
b100 r
0&
b0 '
b0 p
b110 M
b11111111 [
b11111111 ^
b111 i
b11111001 Y
b11111001 `
1a
b1111100 n
b100 3
b100 Q
b100 o
b11111001 #
b1001 $
b0 c
b0 K
b11111111 N
b11111001 J
b11111001 ]
b11111001 b
b11111001 h
12
b0 /
b0 \
b0 y
b101 {
bx 0
bx w
bx x
b1001 z
b0 |
b1100 q
b1100000010010101 "
b1100000010010101 !"
#3200
14
#3300
04
#3310
b1010 .
b1010 G
b1001 +
b1001 I
b1001 t
b1001 ~
#3320
b11110111 P
b11110111 j
b11110111 k
b11100000 O
b11100000 S
b11100000 d
b11100000 e
b1111110 m
b1111110 l
b0 ,
b11111001 %
b11111001 }
b1010 !
b1010 s
b11100000 f
b0 -
b0 r
1&
b11 '
b11 p
b11111000 g
b1111110 n
b0 M
b11111100 [
b11111100 ^
b100 i
b11111100 J
b11111100 ]
b11111100 b
b11111100 h
b11111101 #
b1101 $
b11 c
b0 K
b11111100 N
02
b11 /
b11 \
b11 y
b100 {
b11111100 0
b11111100 w
b11111100 x
b1101 z
b1101 |
b100 q
b100110111010100 "
b100110111010100 !"
#3400
14
#3500
04
#3510
b1011 !
b1011 s
b1011 .
b1011 G
b1010 +
b1010 I
b1010 t
b1010 ~
b11001000 O
b11001000 S
b11001000 d
b11001000 e
b11110110 %
b11110110 }
b11001000 f
b11110110 *
b11110110 Z
b11110110 v
b1111100 l
b100 M
b11110110 X
b11110010 g
b1111100 m
b1 K
b11110110 Y
b11110110 `
b1111100 n
b11111001 J
b11111001 ]
b11111001 b
b11111001 h
b11111001 0
b11111001 w
b11111001 x
b11111001 B
#3520
b11111100 %
b11111100 }
b0 P
b0 j
b0 k
b110 S
b110 d
b110 e
b11111100 *
b11111100 Z
b11111100 v
b0 l
0a
b110 f
b11111100 X
b110 g
b1 m
0&
b0 O
b11111001 [
b11111001 ^
b110 i
b11111100 Y
b11111100 `
b1 n
0_
b1 c
b1 K
b110 N
1R
b11 J
b11 ]
b11 b
b11 h
b1 -
b1 r
b11 #
b11 $
12
b0 3
b0 Q
b0 o
0U
b100 V
0T
b11111001 /
b11111001 \
b11111001 y
b1101 {
b10001 0
b10001 w
b10001 x
b1111 z
b11 |
11
1(
b1111 q
b1111001111111101 "
b1111001111111101 !"
#3600
14
#3700
04
#3710
b1100 !
b1100 s
b1100 .
b1100 G
b10001 )
b10001 u
b1011 +
b1011 I
b1011 t
b1011 ~
#3720
b11111011 %
b11111011 }
b100 S
b100 d
b100 e
bx )
bx u
b11111011 *
b11111011 Z
b11111011 v
b100 f
b11111011 X
b100 g
b0 K
b11111011 Y
b11111011 `
b10 J
b10 ]
b10 b
b10 h
b10 #
b10 $
b1010 0
b1010 w
b1010 x
b1000 z
b10 |
b1111001010001101 "
b1111001010001101 !"
#3800
14
#3900
04
#3910
b1101 !
b1101 s
b1101 .
b1101 G
b1100 +
b1100 I
b1100 t
b1100 ~
b1010 )
b1010 u
#3920
b11111010 %
b11111010 }
b10 S
b10 d
b10 e
bx )
bx u
b11111010 *
b11111010 Z
b11111010 v
b10 f
b110 M
b11111010 X
b10 g
b0 m
b1 K
b11111010 Y
b11111010 `
b0 n
b1 J
b1 ]
b1 b
b1 h
b1 #
b1 $
bx 0
bx w
bx x
b1001 z
b1 |
b1111000110011101 "
b1111000110011101 !"
#4000
14
#4100
04
#4110
b1110 !
b1110 s
b1110 .
b1110 G
b1101 +
b1101 I
b1101 t
b1101 ~
#4120
b1001 S
b1001 d
b1001 e
b10 m
b1001 f
b1001 *
b1001 Z
b1001 v
b1001 g
b1001 X
1&
b1001 %
b1001 }
b100 n
b1001 O
b1001 Y
b1001 `
b11110110 M
b111 i
b11 '
b11 p
b1001 J
b1001 ]
b1001 b
b1001 h
b0 c
b0 [
b0 ^
b0 K
b11111111 N
b0 -
b0 r
b10 #
b10 $
02
0R
b10 V
1T
b0 /
b0 \
b0 y
b0 {
b1001 0
b1001 w
b1001 x
b10 z
b1000 |
01
0(
b0 q
b100000100000 "
b100000100000 !"
#4200
14
#4300
04
#4310
b1111 !
b1111 s
b1111 .
b1111 G
b1110 +
b1110 I
b1110 t
b1110 ~
b1001 =
#4320
b0 *
b0 Z
b0 v
b0 X
b0 m
b1 %
b1 }
b0 S
b0 d
b0 e
b0 f
b1 '
b1 p
xW
b0 O
xa
bx M
bx i
bx Y
bx `
b0 g
b0 n
b1 3
b1 Q
b1 o
b0 #
b0 $
bx c
bx [
bx ^
b0 K
bx N
b0 J
b0 ]
b0 b
b0 h
b1 -
b1 r
12
xU
xR
bx0 V
xT
bx /
bx \
bx y
b1 {
b0 0
b0 w
b0 x
b0 z
b110 |
b1001 q
b1001011000000001 "
b1001011000000001 !"
#4400
14
#4500
04
#4510
b10000 !
b10000 s
b10000 .
b10000 G
b1111 +
b1111 I
b1111 t
b1111 ~
#4520
b10010 O
b10010 S
b10010 d
b10010 e
b1 l
b10010 f
b1000 *
b1000 Z
b1000 v
b10010 g
b100 m
b1000 X
b1 K
b100 n
1_
b1000 %
b1000 }
b1000 Y
b1000 `
1a
b11110110 M
b110 i
b11 '
b11 p
b1001 J
b1001 ]
b1001 b
b1001 h
b100 3
b100 Q
b100 o
b11111000 #
b1000 $
b1 c
b11111110 [
b11111110 ^
b11111110 N
b0 -
b0 r
02
0U
0R
0W
b10 V
1T
b1 /
b1 \
b1 y
b110 {
b1001 0
b1001 w
b1001 x
b1000 z
b10 |
b100 q
b100001010000110 "
b100001010000110 !"
#4600
14
#4700
04
#4710
b10001 !
b10001 s
b10001 .
b10001 G
b10000 +
b10000 I
b10000 t
b10000 ~
b1000 7
#4720
b10001 )
b10001 u
b0 O
b100 !
b100 s
0a
b0 S
b0 d
b0 e
b11111100 *
b11111100 Z
b11111100 v
b1 ,
b10001 %
b10001 }
0T
1W
b100 V
1R
b0 f
b11111100 X
b0 g
b0 m
b0 l
b0 P
b0 j
b0 k
b10 -
b10 r
b10 '
b10 p
0_
b11111100 M
b11 [
b11 ^
b100 i
b11 Y
b11 `
b0 n
b10 3
b10 Q
b10 o
b0 #
b0 $
b11 c
b0 K
b11111100 N
b0 J
b0 ]
b0 b
b0 h
12
b11 /
b11 \
b11 y
b100 {
b0 0
b0 w
b0 x
b0 z
b1111 |
b1010 q
b1010111100000100 "
b1010111100000100 !"
#4800
14
#4900
04
#4910
b101 %
b101 }
b101 .
b101 G
b100 +
b100 I
b100 t
b100 ~
#4920
bx )
bx u
b0 *
b0 Z
b0 v
b0 X
b0 ,
b11 %
b11 }
b101 !
b101 s
bx Y
bx `
xa
bx M
bx i
b1 '
b1 p
b1 3
b1 Q
b1 o
bx c
bx [
bx ^
bx N
b1 -
b1 r
xU
xW
xR
bx0 V
xT
bx /
bx \
bx y
b11 {
b100 |
b1001 q
b1001010000000011 "
b1001010000000011 !"
#5000
14
#5100
04
#5110
b110 !
b110 s
b110 .
b110 G
b101 +
b101 I
b101 t
b101 ~
#5120
b1000000 O
b1000000 S
b1000000 d
b1000000 e
b1000000 f
0L
b11110100 X
b100 l
b10000 g
b100 m
b100 n
1_
b0 %
b0 }
b101 Y
b101 `
1a
b11110100 M
b100 i
b11 '
b11 p
b1000 J
b1000 ]
b1000 b
b1000 h
b110 3
b110 Q
b110 o
b10 #
b10 $
b11 c
b11111100 [
b11111100 ^
b11111100 N
b0 -
b0 r
02
0U
0R
0W
b10 V
1T
b11 /
b11 \
b11 y
b100 {
b1000 0
b1000 w
b1000 x
b10 z
b101 |
b110 q
b110010100100100 "
b110010100100100 !"
#5200
14
#5300
04
#5310
b111 !
b111 s
b111 .
b111 G
b110 +
b110 I
b110 t
b110 ~
#5320
b11111001 *
b11111001 Z
b11111001 v
1L
b11111110 P
b11111110 j
b11111110 k
b11111001 O
b1001 !
b1001 s
b11111001 S
b11111001 d
b11111001 e
b10 ,
b11101111 l
bx %
bx }
b11111001 X
b11111001 f
b11111001 g
b10111110 m
b100 -
b100 r
0&
b0 '
b0 p
b110 M
b11111111 [
b11111111 ^
b111 i
b11111001 Y
b11111001 `
1a
b1111100 n
b100 3
b100 Q
b100 o
b11111001 #
b1001 $
b0 c
b11111111 N
b11111001 J
b11111001 ]
b11111001 b
b11111001 h
12
b0 /
b0 \
b0 y
b101 {
bx 0
bx w
bx x
b1001 z
b0 |
b1100 q
b1100000010010101 "
b1100000010010101 !"
#5400
14
#5500
04
#5510
b1010 .
b1010 G
b1001 +
b1001 I
b1001 t
b1001 ~
#5520
b11110111 P
b11110111 j
b11110111 k
b11001000 O
b11110110 *
b11110110 Z
b11110110 v
b11001000 S
b11001000 d
b11001000 e
b11110110 X
b1111100 m
b1111100 l
b0 ,
b11110110 %
b11110110 }
b1010 !
b1010 s
b11110010 g
b11001000 f
b11110110 Y
b11110110 `
b0 -
b0 r
1&
b11 '
b11 p
b100 M
b11111100 [
b11111100 ^
b100 i
b11111101 #
b1101 $
b11 c
b1 K
b11111100 N
02
b11 /
b11 \
b11 y
b100 {
b11111001 0
b11111001 w
b11111001 x
b1101 z
b1101 |
b100 q
b100110111010100 "
b100110111010100 !"
#5600
14
#5700
04
#5710
b1011 !
b1011 s
b1011 .
b1011 G
b1010 +
b1010 I
b1010 t
b1010 ~
b10110000 O
b10110000 S
b10110000 d
b10110000 e
b11110011 %
b11110011 }
b10110000 f
b11110011 *
b11110011 Z
b11110011 v
b1111011 l
b1000 M
b11110011 X
b11101100 g
b1111011 m
b10 K
b11110011 Y
b11110011 `
b1111011 n
b11110110 J
b11110110 ]
b11110110 b
b11110110 h
b11110110 0
b11110110 w
b11110110 x
b11110110 B
#5720
b11111001 %
b11111001 }
b1100 f
b0 P
b0 j
b0 k
b11111001 *
b11111001 Z
b11111001 v
b0 l
0a
b11000000 S
b11000000 d
b11000000 e
b11111001 X
b11 g
b0 m
0&
b0 O
b11110110 [
b11110110 ^
b1 i
b11111001 Y
b11111001 `
b1 n
0_
b110 c
b10 K
b1001 N
1R
b11 J
b11 ]
b11 b
b11 h
b1 -
b1 r
b11 #
b11 $
12
b0 3
b0 Q
b0 o
0U
b100 V
0T
b11110110 /
b11110110 \
b11110110 y
b1101 {
b10001 0
b10001 w
b10001 x
b1111 z
b11 |
11
1(
b1111 q
b1111001111111101 "
b1111001111111101 !"
#5800
14
#5900
04
#5910
b1100 !
b1100 s
b1100 .
b1100 G
b10001 )
b10001 u
b1011 +
b1011 I
b1011 t
b1011 ~
#5920
b10000000 S
b10000000 d
b10000000 e
b11111000 %
b11111000 }
bx )
bx u
b11111000 *
b11111000 Z
b11111000 v
b1000 f
b1001 M
b11111000 X
b11111000 Y
b11111000 `
b10 g
b10 J
b10 ]
b10 b
b10 h
b10 #
b10 $
b1001 0
b1001 w
b1001 x
b1000 z
b10 |
b1111001010001101 "
b1111001010001101 !"
#6000
14
#6100
04
#6110
b1101 !
b1101 s
b1101 .
b1101 G
b1100 +
b1100 I
b1100 t
b1100 ~
b1001 )
b1001 u
#6120
b1000000 S
b1000000 d
b1000000 e
b11110111 %
b11110111 }
bx )
bx u
b11110111 *
b11110111 Z
b11110111 v
b100 f
b1000 M
b11110111 X
b0 K
b11110111 Y
b11110111 `
b1 g
b0 n
b1 J
b1 ]
b1 b
b1 h
b1 #
b1 $
bx 0
bx w
bx x
b1001 z
b1 |
b1111000110011101 "
b1111000110011101 !"
#6200
14
#6300
04
#6310
b1110 !
b1110 s
b1110 .
b1110 G
b1101 +
b1101 I
b1101 t
b1101 ~
#6320
b10 m
b1000 *
b1000 Z
b1000 v
b1000 f
b1000 S
b1000 d
b1000 e
b1000 X
1&
b1000 %
b1000 }
b1000 g
b100 n
b1000 O
b1000 Y
b1000 `
b11110111 M
b111 i
b11 '
b11 p
b1000 J
b1000 ]
b1000 b
b1000 h
b0 c
b0 [
b0 ^
b11111111 N
b0 -
b0 r
b10 #
b10 $
02
0R
b10 V
1T
b0 /
b0 \
b0 y
b0 {
b1000 0
b1000 w
b1000 x
b10 z
b1000 |
01
0(
b0 q
b100000100000 "
b100000100000 !"
#6400
14
#6500
04
#6510
b1111 !
b1111 s
b1111 .
b1111 G
b1110 +
b1110 I
b1110 t
b1110 ~
b1000 =
#6520
b0 *
b0 Z
b0 v
b0 X
b0 m
b1 %
b1 }
b0 S
b0 d
b0 e
b0 f
b1 '
b1 p
xW
b0 O
xa
bx M
bx i
bx Y
bx `
b0 g
b0 n
b1 3
b1 Q
b1 o
b0 #
b0 $
bx c
bx [
bx ^
b0 K
bx N
b0 J
b0 ]
b0 b
b0 h
b1 -
b1 r
12
xU
xR
bx0 V
xT
bx /
bx \
bx y
b1 {
b0 0
b0 w
b0 x
b0 z
b110 |
b1001 q
b1001011000000001 "
b1001011000000001 !"
#6600
14
#6700
04
#6710
b10000 !
b10000 s
b10000 .
b10000 G
b1111 +
b1111 I
b1111 t
b1111 ~
